[
{ "Name": "Livin With Jigsaw", "embeddedVideo": "kTXfAtckS3g" },
{ "Name": "Mac vs Windows", "embeddedVideo": "njos57IJf-0" },
{ "Name": "Dont use phones on planes", "embeddedVideo": "JYAq-7sOzXQ" },
{ "Name": "Militant Black Guy", "embeddedVideo": "jKhQ2T_LI5c" },
{ "Name": "Back to the Future", "embeddedVideo": "r5aRcwHULaI" },
{ "Name": "Dead Givaway", "embeddedVideo": "nZcRU0Op5P4" },
{ "Name": "Batman & Two Face", "embeddedVideo": "MTLp14MKDDU" },
{ "Name": "Samuael Adams Advert", "embeddedVideo": "1ji1-BqaLaE" },
{ "Name": "For The Gamers", "embeddedVideo": "IhaXyLFnmeg" },
{ "Name": "Masterchef Rap", "embeddedVideo": "IfeyUGZt8nk" }
]